^C:\USERS\MRITC\DOCUMENTS\VISUAL STUDIO 2015\PROJECTS\RAVENSONG ENGINE\RAVENSONG ENGINE\RELEASE\COLLISION.OBJ|C:\USERS\MRITC\DOCUMENTS\VISUAL STUDIO 2015\PROJECTS\RAVENSONG ENGINE\RAVENSONG ENGINE\RELEASE\ECS.OBJ|C:\USERS\MRITC\DOCUMENTS\VISUAL STUDIO 2015\PROJECTS\RAVENSONG ENGINE\RAVENSONG ENGINE\RELEASE\GAME.OBJ|C:\USERS\MRITC\DOCUMENTS\VISUAL STUDIO 2015\PROJECTS\RAVENSONG ENGINE\RAVENSONG ENGINE\RELEASE\MAIN.OBJ|C:\USERS\MRITC\DOCUMENTS\VISUAL STUDIO 2015\PROJECTS\RAVENSONG ENGINE\RAVENSONG ENGINE\RELEASE\MAP.OBJ|C:\USERS\MRITC\DOCUMENTS\VISUAL STUDIO 2015\PROJECTS\RAVENSONG ENGINE\RAVENSONG ENGINE\RELEASE\TEXTUREMANAGER.OBJ|C:\USERS\MRITC\DOCUMENTS\VISUAL STUDIO 2015\PROJECTS\RAVENSONG ENGINE\RAVENSONG ENGINE\RELEASE\VECTOR2D.OBJ
C:\USERS\MRITC\DOCUMENTS\VISUAL STUDIO 2015\PROJECTS\RAVENSONG ENGINE\RELEASE\RAVENSONG ENGINE.EXE
C:\USERS\MRITC\DOCUMENTS\VISUAL STUDIO 2015\PROJECTS\RAVENSONG ENGINE\RELEASE\RAVENSONG ENGINE.IPDB
C:\USERS\MRITC\DOCUMENTS\VISUAL STUDIO 2015\PROJECTS\RAVENSONG ENGINE\RELEASE\RAVENSONG ENGINE.IOBJ
C:\USERS\MRITC\DOCUMENTS\VISUAL STUDIO 2015\PROJECTS\RAVENSONG ENGINE\RELEASE\RAVENSONG ENGINE.PDB
